Use with dplyr • tibbletime
…
series %>%
  mutate(year = year(date), month = month(date)) %>%
  group_by(year, month) %>%
  summarise(mean_var = mean(var))

## # A tibble: 60 x 3
##     year month mean_var
##    <dbl> <dbl>    <dbl>
##  1  2013     1   0.0222
##  2  2013     2  -0.156 
##  3  2013     3   0.0255
##  4  2013     4   0.233 
##  5  2013     5   0.0477
##  6  2013     6  -0.0742
##  7  2013     7  -0.0798
##  8  2013     8  -0.170 
##  9  2013     9  -0.0243
## 10  2013    10  -0.0160
## # … with 50 more rows
…
