Use with dplyr
…
series %>%
  mutate(year = year(date), month = month(date)) %>%
  group_by(year, month) %>%
  summarise(mean_var = mean(var))

## # A tibble: 60 x 3
##     year month mean_var
##    <dbl> <dbl>    <dbl>
##  1  2013  1.00  -0.266 
##  2  2013  2.00  -0.0204
##  3  2013  3.00   0.181 
##  4  2013  4.00  -0.0841
##  5  2013  5.00   0.606 
##  6  2013  6.00  -0.221 
##  7  2013  7.00  -0.183 
##  8  2013  8.00   0.126 
##  9  2013  9.00  -0.318 
## 10  2013 10.0   -0.376 
## # ... with 50 more rows
…
