Use with dplyr • tibbletime
…
series %>%
  mutate(year = year(date), month = month(date)) %>%
  group_by(year, month) %>%
  summarise(mean_var = mean(var))

## # A tibble: 60 x 3
##     year month mean_var
##    <dbl> <dbl>    <dbl>
##  1  2013  1.00   0.0575
##  2  2013  2.00   0.0625
##  3  2013  3.00   0.101 
##  4  2013  4.00   0.0184
##  5  2013  5.00   0.234 
##  6  2013  6.00   0.0441
##  7  2013  7.00   0.0459
##  8  2013  8.00  -0.139 
##  9  2013  9.00  -0.0259
## 10  2013 10.0    0.0616
## # ... with 50 more rows
…
