Partition an index vector into an integer vector representing groups — partition_index • tibbletime
…
dplyr::mutate(FB, partition_index = partition_index(date, '2 day'))
#> # A tibble: 1,008 x 9
#>    symbol date        open  high   low close    volume adjusted partition_index
#>    <chr>  <date>     <dbl> <dbl> <dbl> <dbl>     <dbl>    <dbl>           <int>
#>  1 FB     2013-01-02  27.4  28.2  27.4  28    69846400     28                 1
#>  2 FB     2013-01-03  27.9  28.5  27.6  27.8  63140600     27.8               2
#>  3 FB     2013-01-04  28.0  28.9  27.8  28.8  72715400     28.8               2
#>  4 FB     2013-01-07  28.7  29.8  28.6  29.4  83781800     29.4               4
#>  5 FB     2013-01-08  29.5  29.6  28.9  29.1  45871300     29.1               4
#>  6 FB     2013-01-09  29.7  30.6  29.5  30.6 104787700     30.6               5
#>  7 FB     2013-01-10  30.6  31.5  30.3  31.3  95316400     31.3               5
#>  8 FB     2013-01-11  31.3  32.0  31.1  31.7  89598000     31.7               6
#>  9 FB     2013-01-14  32.1  32.2  30.6  31.0  98892800     31.0               7
#> 10 FB     2013-01-15  30.6  31.7  29.9  30.1 173242600     30.1               8
#> # … with 998 more rows
…
