Generate a vector of time-based groupings — time_group • tibbletime
…
dplyr::mutate(FB, time_group = time_group(date, 2~d))
#> # A tibble: 1,008 x 9
#>    symbol       date  open  high   low close    volume adjusted time_group
#>     <chr>     <date> <dbl> <dbl> <dbl> <dbl>     <dbl>    <dbl>      <dbl>
#>  1     FB 2013-01-02 27.44 28.18 27.42 28.00  69846400    28.00          1
#>  2     FB 2013-01-03 27.88 28.47 27.59 27.77  63140600    27.77          1
#>  3     FB 2013-01-04 28.01 28.93 27.83 28.76  72715400    28.76          2
#>  4     FB 2013-01-07 28.69 29.79 28.65 29.42  83781800    29.42          3
#>  5     FB 2013-01-08 29.51 29.60 28.86 29.06  45871300    29.06          4
#>  6     FB 2013-01-09 29.67 30.60 29.49 30.59 104787700    30.59          4
#>  7     FB 2013-01-10 30.60 31.45 30.28 31.30  95316400    31.30          5
#>  8     FB 2013-01-11 31.28 31.96 31.10 31.72  89598000    31.72          5
#>  9     FB 2013-01-14 32.08 32.21 30.62 30.95  98892800    30.95          7
#> 10     FB 2013-01-15 30.64 31.71 29.88 30.10 173242600    30.10          7
#> # ... with 998 more rows
…
