Use with dplyr • tibbletime
…
series %>%
  mutate(year = year(date), month = month(date)) %>%
  group_by(year, month) %>%
  summarise(mean_var = mean(var))

## # A tibble: 60 × 3
##     year month mean_var
##    <dbl> <dbl>    <dbl>
##  1  2013     1  -0.146 
##  2  2013     2   0.0114
##  3  2013     3  -0.0611
##  4  2013     4   0.0364
##  5  2013     5   0.0554
##  6  2013     6   0.118 
##  7  2013     7   0.0917
##  8  2013     8  -0.0614
##  9  2013     9   0.0916
## 10  2013    10  -0.0121
## # … with 50 more rows
…
